64,1285,1285,5000,名詞,一般,ゲーム機,*,*,64,ロクヨン,ロクヨン
GC,1285,1285,5000,名詞,一般,ゲーム機,*,*,GC,ゲームキューブ,ゲームキューブ
ゲームキューブ,1285,1285,5000,名詞,一般,ゲーム機,*,*,ゲームキューブ,ゲームキューブ,ゲームキューブ
Wii,1285,1285,5000,名詞,一般,ゲーム機,*,*,Wii,ウィー,ウィー
3DS,1285,1285,5000,名詞,一般,ゲーム機,*,*,3DS,スリーディーエス,スリーディーエス
WiiU,1285,1285,5000,名詞,一般,ゲーム機,*,*,WiiU,ウィーユー,ウィーユー
Wii U,1285,1285,5000,名詞,一般,ゲーム機,*,*,Wii U,ウィーユー,ウィーユー
ニンテンドーオールスター,1285,1285,5000,名詞,一般,スマブラ,タイトル,*,ニンテンドーオールスター,ニンテンドーオールスター,ニンテンドーオールスター
大乱闘,1285,1285,5000,名詞,一般,スマブラ,タイトル,*,大乱闘,ダイラントウ,ダイラントウ
スマッシュブラザーズ,1285,1285,5000,名詞,一般,スマブラ,タイトル,*,スマッシュブラザーズ,スマッシュブラザーズ,スマッシュブラザーズ
スマブラ,1285,1285,5000,名詞,一般,スマブラ,タイトル,*,スマブラ,スマブラ,スマブラ
スマブラ64,1285,1285,5000,名詞,一般,スマブラ,タイトル,*,スマブラ64,スマブラロクヨン,スマブラロクヨン
スマブラDX,1285,1285,5000,名詞,一般,スマブラ,タイトル,*,スマブラDX,スマブラデラックス,スマブラデラックス
スマデラ,1285,1285,5000,名詞,一般,スマブラ,タイトル,*,スマデラ,スマデラ,スマデラ
スマブラX,1285,1285,5000,名詞,一般,スマブラ,タイトル,*,スマブラX,スマブラエックス,スマブラエックス
スマブラ4,1285,1285,5000,名詞,一般,スマブラ,タイトル,*,スマブラ4,スマブラフォー,スマブラフォー
スマブラfor,1285,1285,5000,名詞,一般,スマブラ,タイトル,*,スマブラfor,スマブラフォー,スマブラフォー
スマブラWiiU,1285,1285,5000,名詞,一般,スマブラ,タイトル,*,スマブラWiiU,スマブラウィーユー,スマブラウィーユー
スマブラWii U,1285,1285,5000,名詞,一般,スマブラ,タイトル,*,スマブラWii U,スマブラウィーユー,スマブラウィーユー
スマブラ3DS,1285,1285,5000,名詞,一般,スマブラ,タイトル,*,スマブラ3DS,スマブラスリーディーエス,スマブラスリーディーエス
スマブラforWiiU,1285,1285,5000,名詞,一般,スマブラ,タイトル,*,スマブラforWiiU,スマブラフォーウィーユー,スマブラフォーウィーユー
スマブラforWii U,1285,1285,5000,名詞,一般,スマブラ,タイトル,*,スマブラforWii U,スマブラフォーウィーユー,スマブラフォーウィーユー
スマブラfor3DS,1285,1285,5000,名詞,一般,スマブラ,タイトル,*,スマブラfor3DS,スマブラフォースリーディーエス,スマブラフォースリーディーエス
スマブラ for WiiU,1285,1285,5000,名詞,一般,スマブラ,タイトル,*,スマブラ for WiiU,スマブラフォーウィーユー,スマブラフォーウィーユー
スマブラ for Wii U,1285,1285,5000,名詞,一般,スマブラ,タイトル,*,スマブラ for Wii U,スマブラフォーウィーユー,スマブラフォーウィーユー
スマブラ for 3DS,1285,1285,5000,名詞,一般,スマブラ,タイトル,*,スマブラ for 3DS,スマブラフォースリーディーエス,スマブラフォースリーディーエス
スマブラスペシャル,1285,1285,5000,名詞,一般,スマブラ,タイトル,*,スマブラスペシャル,スマブラエスピー,スマブラエスピー
スマブラSP,1285,1285,5000,名詞,一般,スマブラ,タイトル,*,スマブラSP,スマブラエスピー,スマブラエスピー
弱,1285,1285,5000,名詞,一般,スマブラ,ファイター共通,*,弱,ジャク,ジャク
弱,1283,1283,5000,名詞,サ変接続,スマブラ,ファイター共通,*,弱,ジャク,ジャク
弱連,1283,1283,5000,名詞,サ変接続,スマブラ,ファイター共通,*,弱連,ジャクレン,ジャクレン
百烈,1283,1283,5000,名詞,サ変接続,スマブラ,ファイター共通,*,百烈,ヒャクレツ,ヒャクレツ
百裂,1283,1283,5000,名詞,サ変接続,スマブラ,ファイター共通,*,百裂,ヒャクレツ,ヒャクレツ
上強,1283,1283,5000,名詞,サ変接続,スマブラ,ファイター共通,*,上強,ウエキョウ,ウエキョー
横強,1283,1283,5000,名詞,サ変接続,スマブラ,ファイター共通,*,横強,ヨコキョウ,ヨコキョー
下強,1283,1283,5000,名詞,サ変接続,スマブラ,ファイター共通,*,下強,シタキョウ,シタキョー
上スマ,1283,1283,5000,名詞,サ変接続,スマブラ,ファイター共通,*,上スマ,ウエスマ,ウエスマ
横スマ,1283,1283,5000,名詞,サ変接続,スマブラ,ファイター共通,*,横スマ,ヨコスマ,ヨコスマ
下スマ,1283,1283,5000,名詞,サ変接続,スマブラ,ファイター共通,*,下スマ,シタスマ,シタスマ
上スマッシュ,1283,1283,5000,名詞,サ変接続,スマブラ,ファイター共通,*,上スマッシュ,ウエスマッシュ,ウエスマッシュ
横スマッシュ,1283,1283,5000,名詞,サ変接続,スマブラ,ファイター共通,*,横スマッシュ,ヨコスマッシュ,ヨコスマッシュ
下スマッシュ,1283,1283,5000,名詞,サ変接続,スマブラ,ファイター共通,*,下スマッシュ,シタスマッシュ,シタスマッシュ
空N,1283,1283,5000,名詞,サ変接続,スマブラ,ファイター共通,*,空N,クウエヌ,クウエヌ
空上,1283,1283,5000,名詞,サ変接続,スマブラ,ファイター共通,*,空上,クウウエ,クウウエ
空前,1283,1283,5000,名詞,サ変接続,スマブラ,ファイター共通,*,空前,クウマエ,クウマエ
空後,1283,1283,5000,名詞,サ変接続,スマブラ,ファイター共通,*,空後,クウゴ,クウゴ
空下,1283,1283,5000,名詞,サ変接続,スマブラ,ファイター共通,*,空下,クウシタ,クウシタ
NB,1283,1283,5000,名詞,サ変接続,スマブラ,ファイター共通,*,NB,エヌビー,エヌビー
上B,1283,1283,5000,名詞,サ変接続,スマブラ,ファイター共通,*,上B,ウエビー,ウエビー
横B,1283,1283,5000,名詞,サ変接続,スマブラ,ファイター共通,*,横B,ヨコビー,ヨコビー
下B,1283,1283,5000,名詞,サ変接続,スマブラ,ファイター共通,*,下B,シタビー,シタビー
前B,1283,1283,5000,名詞,サ変接続,スマブラ,ファイター共通ー,*,前B,マエビー,マエビー
後B,1283,1283,5000,名詞,サ変接続,スマブラ,ファイター共通ー,*,後B,ウシロビー,ウシロビー
後ろB,1283,1283,5000,名詞,サ変接続,スマブラ,ファイター共通ー,*,後ろB,ウシロビー,ウシロビー
内B,1283,1283,5000,名詞,サ変接続,スマブラ,ファイター共通ー,*,内B,ウチビー,ウチビー
外B,1283,1283,5000,名詞,サ変接続,スマブラ,ファイター共通ー,*,外B,ソトビー,ソトビー
N必殺,1283,1283,5000,名詞,サ変接続,スマブラ,ファイター共通,*,N必殺,エヌヒッサツ,エヌヒッサツ
ニュートラル必殺,1283,1283,5000,名詞,サ変接続,スマブラ,ファイター共通,*,ニュートラル必殺,ニュートラルヒッサツ,ニュートラルヒッサツ
上必殺,1283,1283,5000,名詞,サ変接続,スマブラ,ファイター共通,*,上必殺,ウエヒッサツ,ウエヒッサツ
横必殺,1283,1283,5000,名詞,サ変接続,スマブラ,ファイター共通,*,横必殺,ヨコヒッサツ,ヨコヒッサツ
下必殺,1283,1283,5000,名詞,サ変接続,スマブラ,ファイター共通,*,下必殺,シタヒッサツ,シタヒッサツ
N必殺技,1283,1283,5000,名詞,サ変接続,スマブラ,ファイター共通,*,N必殺技,エヌヒッサツワザ,エヌヒッサツワザ
ニュートラル必殺技,1283,1283,5000,名詞,サ変接続,スマブラ,ファイター共通,*,ニュートラル必殺技,ニュートラルヒッサツワザ,ニュートラルヒッサツワザ
上必殺技,1283,1283,5000,名詞,サ変接続,スマブラ,ファイター共通,*,上必殺技,ウエヒッサツワザ,ウエヒッサツワザ
横必殺技,1283,1283,5000,名詞,サ変接続,スマブラ,ファイター共通,*,横必殺技,ヨコヒッサツワザ,ヨコヒッサツワザ
下必殺技,1283,1283,5000,名詞,サ変接続,スマブラ,ファイター共通,*,下必殺技,シタヒッサツワザ,シタヒッサツワザ
N必殺ワザ,1283,1283,5000,名詞,サ変接続,スマブラ,ファイター共通,*,N必殺ワザ,エヌヒッサツワザ,エヌヒッサツワザ
ニュートラル必殺ワザ,1283,1283,5000,名詞,サ変接続,スマブラ,ファイター共通,*,ニュートラル必殺ワザ,ニュートラルヒッサツワザ,ニュートラルヒッサツワザ
上必殺ワザ,1283,1283,5000,名詞,サ変接続,スマブラ,ファイター共通,*,上必殺ワザ,ウエヒッサツワザ,ウエヒッサツワザ
横必殺ワザ,1283,1283,5000,名詞,サ変接続,スマブラ,ファイター共通,*,横必殺ワザ,ヨコヒッサツワザ,ヨコヒッサツワザ
下必殺ワザ,1283,1283,5000,名詞,サ変接続,スマブラ,ファイター共通,*,下必殺ワザ,シタヒッサツワザ,シタヒッサツワザ
つかみ,1283,1283,5000,名詞,サ変接続,スマブラ,ファイター共通,*,つかみ,ツカミ,ツカミ
掴み,1283,1283,5000,名詞,サ変接続,スマブラ,ファイター共通,*,つかみ,ツカミ,ツカミ
上投げ,1283,1283,5000,名詞,サ変接続,スマブラ,ファイター共通,*,上投げ,ウエナゲ,ウエナゲ
前投げ,1283,1283,5000,名詞,サ変接続,スマブラ,ファイター共通,*,前投げ,マエナゲ,マエナゲ
後投げ,1283,1283,5000,名詞,サ変接続,スマブラ,ファイター共通,*,後投げ,ウシロナゲ,ウシロナゲ
後ろ投げ,1283,1283,5000,名詞,サ変接続,スマブラ,ファイター共通,*,後ろ投げ,ウシロナゲ,ウシロナゲ
下投げ,1283,1283,5000,名詞,サ変接続,スマブラ,ファイター共通,*,下投げ,シタナゲ,シタナゲ
ジャンプ,1283,1283,5000,名詞,サ変接続,スマブラ,ファイター共通,*,ジャンプ,ジャンプ,ジャンプ
大ジャンプ,1283,1283,5000,名詞,サ変接続,スマブラ,ファイター共通,*,大ジャンプ,ダイジャンプ,ダイジャンプ
小ジャンプ,1283,1283,5000,名詞,サ変接続,スマブラ,ファイター共通,*,小ジャンプ,ショウジャンプ,ショウジャンプ
大ジャン,1283,1283,5000,名詞,サ変接続,スマブラ,ファイター共通,*,大ジャン,ダイジャン,ダイジャン
小ジャン,1283,1283,5000,名詞,サ変接続,スマブラ,ファイター共通,*,小ジャン,ショウジャン,ショウジャン
大J,1283,1283,5000,名詞,サ変接続,スマブラ,ファイター共通,*,大J,ダイジャン,ダイジャン
小J,1283,1283,5000,名詞,サ変接続,スマブラ,ファイター共通,*,小J,ショウジャン,ショウジャン
SJ,1283,1283,5000,名詞,サ変接続,スマブラ,ファイター共通,*,SJ,ショウジャン,ショウジャン
ガード,1283,1283,5000,名詞,サ変接続,スマブラ,ファイター共通,*,ガード,ガード,ガード
シールドシフト,1283,1283,5000,名詞,サ変接続,スマブラ,ファイター共通,*,シールドシフト,シールドシフト,シールドシフト
ガードシフト,1283,1283,5000,名詞,サ変接続,スマブラ,ファイター共通,*,ガードシフト,ガードシフト,ガードシフト
ジャストシールド,1283,1283,5000,名詞,サ変接続,スマブラ,ファイター共通,*,ジャストシールド,ジャストシールド,ジャストシールド
ジャストガード,1283,1283,5000,名詞,サ変接続,スマブラ,ファイター共通,*,ジャストガード,ジャストガード,ジャストガード
ジャスガ,1283,1283,5000,名詞,サ変接続,スマブラ,ファイター共通,*,ジャスガ,ジャスガ,ジャスガ
連続シールド,1283,1283,5000,名詞,サ変接続,スマブラ,ファイター共通,*,連続シールド,レンゾクシールド,レンゾクシールド
連続ガード,1283,1283,5000,名詞,サ変接続,スマブラ,ファイター共通,*,連続ガード,レンゾクガード,レンゾクガード
連ガ,1283,1283,5000,名詞,サ変接続,スマブラ,ファイター共通,*,連ガ,レンガ,レンガ
連続ジャストシールド,1283,1283,5000,名詞,サ変接続,スマブラ,ファイター共通,*,連続ジャストシールド,レンゾクジャストシールド,レンゾクジャストシールド
連続ジャスガ,1283,1283,5000,名詞,サ変接続,スマブラ,ファイター共通,*,連続ジャスガ,レンゾクジャスガ,レンゾクジャスガ
回避,1283,1283,5000,名詞,サ変接続,スマブラ,ファイター共通,*,回避,カイヒ,カイヒ
緊急回避,1283,1283,5000,名詞,サ変接続,スマブラ,ファイター共通,*,緊急回避,キンキュウカイヒ,キンキュウカイヒ
地上回避,1283,1283,5000,名詞,サ変接続,スマブラ,ファイター共通,*,地上回避,チジョウカイヒ,チジョウカイヒ
その場回避,1283,1283,5000,名詞,サ変接続,スマブラ,ファイター共通,*,その場回避,ソノバカイヒ,ソノバカイヒ
横回避,1283,1283,5000,名詞,サ変接続,スマブラ,ファイター共通,*,横回避,ヨコカイヒ,ヨコカイヒ
前回避,1283,1283,5000,名詞,サ変接続,スマブラ,ファイター共通,*,前回避,マエカイヒ,マエカイヒ
後回避,1283,1283,5000,名詞,サ変接続,スマブラ,ファイター共通,*,後回避,ウシロカイヒ,ウシロカイヒ
後ろ回避,1283,1283,5000,名詞,サ変接続,スマブラ,ファイター共通,*,後ろ回避,ウシロカイヒ,ウシロカイヒ
前方回避,1283,1283,5000,名詞,サ変接続,スマブラ,ファイター共通,*,前方回避,ゼンポウカイヒ,ゼンポウカイヒ
後方回避,1283,1283,5000,名詞,サ変接続,スマブラ,ファイター共通,*,後方回避,コウホウカイヒ,コウホウカイヒ
前転がり,1283,1283,5000,名詞,サ変接続,スマブラ,ファイター共通,*,前転がり,マエコロガリ,マエコロガリ
後転がり,1283,1283,5000,名詞,サ変接続,スマブラ,ファイター共通,*,後転がり,ウシロコロガリ,ウシロコロガリ
後ろ転がり,1283,1283,5000,名詞,サ変接続,スマブラ,ファイター共通,*,後ろ転がり,ウシロコロガリ,ウシロコロガリ
前ころがり,1283,1283,5000,名詞,サ変接続,スマブラ,ファイター共通,*,前ころがり,マエコロガリ,マエコロガリ
後ころがり,1283,1283,5000,名詞,サ変接続,スマブラ,ファイター共通,*,後ころがり,ウシロコロガリ,ウシロコロガリ
後ろころがり,1283,1283,5000,名詞,サ変接続,スマブラ,ファイター共通,*,後ろころがり,ウシロコロガリ,ウシロコロガリ
内回避,1283,1283,5000,名詞,サ変接続,スマブラ,ファイター共通,*,内回避,ウチカイヒ,ウチカイヒ
外回避,1283,1283,5000,名詞,サ変接続,スマブラ,ファイター共通,*,外回避,ソトカイヒ,ソトカイヒ
内側回避,1283,1283,5000,名詞,サ変接続,スマブラ,ファイター共通,*,内側回避,ウチガワカイヒ,ウチガワカイヒ
外側回避,1283,1283,5000,名詞,サ変接続,スマブラ,ファイター共通,*,外側回避,ソトガワカイヒ,ソトガワカイヒ
内転がり,1283,1283,5000,名詞,サ変接続,スマブラ,ファイター共通,*,内転がり,ウチコロガリ,ウチコロガリ
外転がり,1283,1283,5000,名詞,サ変接続,スマブラ,ファイター共通,*,外転がり,ソトコロガリ,ソトコロガリ
内ころがり,1283,1283,5000,名詞,サ変接続,スマブラ,ファイター共通,*,内ころがり,ウチコロガリ,ウチコロガリ
外ころがり,1283,1283,5000,名詞,サ変接続,スマブラ,ファイター共通,*,外ころがり,ソトコロガリ,ソトコロガリ
右回避,1283,1283,5000,名詞,サ変接続,スマブラ,ファイター共通,*,右回避,ミギカイヒ,ミギカイヒ
左回避,1283,1283,5000,名詞,サ変接続,スマブラ,ファイター共通,*,左回避,ヒダリカイヒ,ヒダリカイヒ
右側回避,1283,1283,5000,名詞,サ変接続,スマブラ,ファイター共通,*,右側回避,ミギガワカイヒ,ミギガワカイヒ
左側回避,1283,1283,5000,名詞,サ変接続,スマブラ,ファイター共通,*,左側回避,ヒダリガワカイヒ,ヒダリガワカイヒ
右転がり,1283,1283,5000,名詞,サ変接続,スマブラ,ファイター共通,*,右転がり,ミギコロガリ,ミギコロガリ
左転がり,1283,1283,5000,名詞,サ変接続,スマブラ,ファイター共通,*,左転がり,ヒダリコロガリ,ヒダリコロガリ
右ころがり,1283,1283,5000,名詞,サ変接続,スマブラ,ファイター共通,*,右ころがり,ミギコロガリ,ミギコロガリ
左ころがり,1283,1283,5000,名詞,サ変接続,スマブラ,ファイター共通,*,左ころがり,ヒダリコロガリ,ヒダリコロガリ
空中回避,1283,1283,5000,名詞,サ変接続,スマブラ,ファイター共通,*,空中回避,クウチュウカイヒ,クウチュウカイヒ
N回避,1283,1283,5000,名詞,サ変接続,スマブラ,ファイター共通,*,N回避,エヌカイヒ,エヌカイヒ
ニュートラル回避,1283,1283,5000,名詞,サ変接続,スマブラ,ファイター共通,*,ニュートラル回避,ニュートラルカイヒ,ニュートラルカイヒ
上回避,1283,1283,5000,名詞,サ変接続,スマブラ,ファイター共通,*,上回避,ウエカイヒ,ウエカイヒ
下回避,1283,1283,5000,名詞,サ変接続,スマブラ,ファイター共通,*,下回避,シタカイヒ,シタカイヒ
斜め回避,1283,1283,5000,名詞,サ変接続,スマブラ,ファイター共通,*,斜め回避,ナナメカイヒ,ナナメカイヒ
斜め上回避,1283,1283,5000,名詞,サ変接続,スマブラ,ファイター共通,*,斜め上回避,ナナメウエカイヒ,ナナメウエカイヒ
斜め下回避,1283,1283,5000,名詞,サ変接続,スマブラ,ファイター共通,*,斜め下回避,ナナメシタカイヒ,ナナメシタカイヒ
内斜め上回避,1283,1283,5000,名詞,サ変接続,スマブラ,ファイター共通,*,内斜め上回避,ウチナナメウエカイヒ,ウチナナメウエカイヒ
内斜め下回避,1283,1283,5000,名詞,サ変接続,スマブラ,ファイター共通,*,内斜め下回避,ウチナナメシタカイヒ,ウチナナメシタカイヒ
外斜め上回避,1283,1283,5000,名詞,サ変接続,スマブラ,ファイター共通,*,外斜め上回避,ソトナナメウエカイヒ,ソトナナメウエカイヒ
外斜め下回避,1283,1283,5000,名詞,サ変接続,スマブラ,ファイター共通,*,外斜め下回避,ソトナナメシタカイヒ,ソトナナメシタカイヒ
内側斜め上回避,1283,1283,5000,名詞,サ変接続,スマブラ,ファイター共通,*,内側斜め上回避,ウチガワナナメウエカイヒ,ウチガワナナメウエカイヒ
内側斜め下回避,1283,1283,5000,名詞,サ変接続,スマブラ,ファイター共通,*,内側斜め下回避,ウチガワナナメシタカイヒ,ウチガワナナメシタカイヒ
外側斜め上回避,1283,1283,5000,名詞,サ変接続,スマブラ,ファイター共通,*,外側斜め上回避,ソトガワナナメウエカイヒ,ソトガワナナメウエカイヒ
外側斜め下回避,1283,1283,5000,名詞,サ変接続,スマブラ,ファイター共通,*,外側斜め下回避,ソトガワナナメシタカイヒ,ソトガワナナメシタカイヒ
右斜め上回避,1283,1283,5000,名詞,サ変接続,スマブラ,ファイター共通,*,右斜め上回避,ミギナナメウエカイヒ,ミギナナメウエカイヒ
右斜め下回避,1283,1283,5000,名詞,サ変接続,スマブラ,ファイター共通,*,右斜め下回避,ミギナナメシタカイヒ,ミギナナメシタカイヒ
左斜め上回避,1283,1283,5000,名詞,サ変接続,スマブラ,ファイター共通,*,左斜め上回避,ヒダリナナメウエカイヒ,ヒダリナナメウエカイヒ
左斜め下回避,1283,1283,5000,名詞,サ変接続,スマブラ,ファイター共通,*,左斜め下回避,ヒダリナナメシタカイヒ,ヒダリナナメシタカイヒ
右側斜め上回避,1283,1283,5000,名詞,サ変接続,スマブラ,ファイター共通,*,右側斜め上回避,ミギガワナナメウエカイヒ,ミギガワナナメウエカイヒ
右側斜め下回避,1283,1283,5000,名詞,サ変接続,スマブラ,ファイター共通,*,右側斜め下回避,ミギガワナナメシタカイヒ,ミギガワナナメシタカイヒ
左側斜め上回避,1283,1283,5000,名詞,サ変接続,スマブラ,ファイター共通,*,左側斜め上回避,ヒダリガワナナメウエカイヒ,ヒダリガワナナメウエカイヒ
左側斜め下回避,1283,1283,5000,名詞,サ変接続,スマブラ,ファイター共通,*,左側斜め下回避,ヒダリガワナナメシタカイヒ,ヒダリガワナナメシタカイヒ
上斜め内回避,1283,1283,5000,名詞,サ変接続,スマブラ,ファイター共通,*,上斜め内回避,ウエナナメウチカイヒ,ウエナナメウチカイヒ
上斜め外回避,1283,1283,5000,名詞,サ変接続,スマブラ,ファイター共通,*,上斜め外回避,ウエナナメソトカイヒ,ウエナナメソトカイヒ
下斜め内回避,1283,1283,5000,名詞,サ変接続,スマブラ,ファイター共通,*,下斜め内回避,シタナナメウチカイヒ,シタナナメウチカイヒ
下斜め外回避,1283,1283,5000,名詞,サ変接続,スマブラ,ファイター共通,*,下斜め外回避,シタナナメソトカイヒ,シタナナメソトカイヒ
上斜め内側回避,1283,1283,5000,名詞,サ変接続,スマブラ,ファイター共通,*,上斜め内側回避,ウエナナメウチガワカイヒ,ウエナナメウチガワカイヒ
上斜め外側回避,1283,1283,5000,名詞,サ変接続,スマブラ,ファイター共通,*,上斜め外側回避,ウエナナメソトガワカイヒ,ウエナナメソトガワカイヒ
下斜め内側回避,1283,1283,5000,名詞,サ変接続,スマブラ,ファイター共通,*,下斜め内側回避,シタナナメウチガワカイヒ,シタナナメウチガワカイヒ
下斜め外側回避,1283,1283,5000,名詞,サ変接続,スマブラ,ファイター共通,*,下斜め外側回避,シタナナメソトガワカイヒ,シタナナメソトガワカイヒ
上斜め右回避,1283,1283,5000,名詞,サ変接続,スマブラ,ファイター共通,*,上斜め右回避,ウエナナメミギカイヒ,ウエナナメミギカイヒ
上斜め左回避,1283,1283,5000,名詞,サ変接続,スマブラ,ファイター共通,*,上斜め左回避,ウエナナメヒダリカイヒ,ウエナナメヒダリカイヒ
下斜め右回避,1283,1283,5000,名詞,サ変接続,スマブラ,ファイター共通,*,下斜め右回避,シタナナメミギカイヒ,シタナナメミギカイヒ
下斜め左回避,1283,1283,5000,名詞,サ変接続,スマブラ,ファイター共通,*,下斜め左回避,シタナナメヒダリカイヒ,シタナナメヒダリカイヒ
上斜め右側回避,1283,1283,5000,名詞,サ変接続,スマブラ,ファイター共通,*,上斜め右側回避,ウエナナメミギガワカイヒ,ウエナナメミギガワカイヒ
上斜め左側回避,1283,1283,5000,名詞,サ変接続,スマブラ,ファイター共通,*,上斜め左側回避,ウエナナメヒダリガワカイヒ,ウエナナメヒダリガワカイヒ
下斜め右側回避,1283,1283,5000,名詞,サ変接続,スマブラ,ファイター共通,*,下斜め右側回避,シタナナメミギガワカイヒ,シタナナメミギガワカイヒ
下斜め左側回避,1283,1283,5000,名詞,サ変接続,スマブラ,ファイター共通,*,下斜め左側回避,シタナナメヒダリガワカイヒ,シタナナメヒダリガワカイヒ
内上回避,1283,1283,5000,名詞,サ変接続,スマブラ,ファイター共通,*,内上回避,ウチウエカイヒ,ウチウエカイヒ
内下回避,1283,1283,5000,名詞,サ変接続,スマブラ,ファイター共通,*,内下回避,ウチシタカイヒ,ウチシタカイヒ
外上回避,1283,1283,5000,名詞,サ変接続,スマブラ,ファイター共通,*,外上回避,ソトウエカイヒ,ソトウエカイヒ
外下回避,1283,1283,5000,名詞,サ変接続,スマブラ,ファイター共通,*,外下回避,ソトシタカイヒ,ソトシタカイヒ
内側上回避,1283,1283,5000,名詞,サ変接続,スマブラ,ファイター共通,*,内側上回避,ウチガワウエカイヒ,ウチガワウエカイヒ
内側下回避,1283,1283,5000,名詞,サ変接続,スマブラ,ファイター共通,*,内側下回避,ウチガワシタカイヒ,ウチガワシタカイヒ
外側上回避,1283,1283,5000,名詞,サ変接続,スマブラ,ファイター共通,*,外側上回避,ソトガワウエカイヒ,ソトガワウエカイヒ
外側下回避,1283,1283,5000,名詞,サ変接続,スマブラ,ファイター共通,*,外側下回避,ソトガワシタカイヒ,ソトガワシタカイヒ
右上回避,1283,1283,5000,名詞,サ変接続,スマブラ,ファイター共通,*,右上回避,ミギウエカイヒ,ミギウエカイヒ
右下回避,1283,1283,5000,名詞,サ変接続,スマブラ,ファイター共通,*,右下回避,ミギシタカイヒ,ミギシタカイヒ
左上回避,1283,1283,5000,名詞,サ変接続,スマブラ,ファイター共通,*,左上回避,ヒダリウエカイヒ,ヒダリウエカイヒ
左下回避,1283,1283,5000,名詞,サ変接続,スマブラ,ファイター共通,*,左下回避,ヒダリシタカイヒ,ヒダリシタカイヒ
右側上回避,1283,1283,5000,名詞,サ変接続,スマブラ,ファイター共通,*,右側上回避,ミギガワウエカイヒ,ミギガワウエカイヒ
右側下回避,1283,1283,5000,名詞,サ変接続,スマブラ,ファイター共通,*,右側下回避,ミギガワシタカイヒ,ミギガワシタカイヒ
左側上回避,1283,1283,5000,名詞,サ変接続,スマブラ,ファイター共通,*,左側上回避,ヒダリガワウエカイヒ,ヒダリガワウエカイヒ
左側下回避,1283,1283,5000,名詞,サ変接続,スマブラ,ファイター共通,*,左側下回避,ヒダリガワシタカイヒ,ヒダリガワシタカイヒ
上内回避,1283,1283,5000,名詞,サ変接続,スマブラ,ファイター共通,*,上内回避,ウエウチカイヒ,ウエウチカイヒ
上外回避,1283,1283,5000,名詞,サ変接続,スマブラ,ファイター共通,*,上外回避,ウエソトカイヒ,ウエソトカイヒ
下内回避,1283,1283,5000,名詞,サ変接続,スマブラ,ファイター共通,*,下内回避,シタウチカイヒ,シタウチカイヒ
下外回避,1283,1283,5000,名詞,サ変接続,スマブラ,ファイター共通,*,下外回避,シタソトカイヒ,シタソトカイヒ
上内側回避,1283,1283,5000,名詞,サ変接続,スマブラ,ファイター共通,*,上内側回避,ウエウチガワカイヒ,ウエウチガワカイヒ
上外側回避,1283,1283,5000,名詞,サ変接続,スマブラ,ファイター共通,*,上外側回避,ウエソトガワカイヒ,ウエソトガワカイヒ
下内側回避,1283,1283,5000,名詞,サ変接続,スマブラ,ファイター共通,*,下内側回避,シタウチガワカイヒ,シタウチガワカイヒ
下外側回避,1283,1283,5000,名詞,サ変接続,スマブラ,ファイター共通,*,下外側回避,シタソトガワカイヒ,シタソトガワカイヒ
上右回避,1283,1283,5000,名詞,サ変接続,スマブラ,ファイター共通,*,上右回避,ウエミギカイヒ,ウエミギカイヒ
上左回避,1283,1283,5000,名詞,サ変接続,スマブラ,ファイター共通,*,上左回避,ウエヒダリカイヒ,ウエヒダリカイヒ
下右回避,1283,1283,5000,名詞,サ変接続,スマブラ,ファイター共通,*,下右回避,シタミギカイヒ,シタミギカイヒ
下左回避,1283,1283,5000,名詞,サ変接続,スマブラ,ファイター共通,*,下左回避,シタヒダリカイヒ,シタヒダリカイヒ
上右側回避,1283,1283,5000,名詞,サ変接続,スマブラ,ファイター共通,*,上右側回避,ウエミギガワカイヒ,ウエミギガワカイヒ
上左側回避,1283,1283,5000,名詞,サ変接続,スマブラ,ファイター共通,*,上左側回避,ウエヒダリガワカイヒ,ウエヒダリガワカイヒ
下右側回避,1283,1283,5000,名詞,サ変接続,スマブラ,ファイター共通,*,下右側回避,シタミギガワカイヒ,シタミギガワカイヒ
下左側回避,1283,1283,5000,名詞,サ変接続,スマブラ,ファイター共通,*,下左側回避,シタヒダリガワカイヒ,シタヒダリガワカイヒ
アイテムキャッチ,1283,1283,5000,名詞,サ変接続,スマブラ,ファイター共通,*,アイテムキャッチ,アイテムキャッチ,アイテムキャッチ
立ち吹っ飛び,1283,1283,5000,名詞,サ変接続,スマブラ,ファイター共通,*,立ち吹っ飛び,タチフットビ,タチフットビ
立ち吹っとび,1283,1283,5000,名詞,サ変接続,スマブラ,ファイター共通,*,立ち吹っとび,タチフットビ,タチフットビ
立ちふっとび,1283,1283,5000,名詞,サ変接続,スマブラ,ファイター共通,*,立ちふっとび,タチフットビ,タチフットビ
倒れ吹っ飛び,1283,1283,5000,名詞,サ変接続,スマブラ,ファイター共通,*,倒れ吹っ飛び,タオレフットビ,タオレフットビ
倒れ吹っとび,1283,1283,5000,名詞,サ変接続,スマブラ,ファイター共通,*,倒れ吹っとび,タオレフットビ,タオレフットビ
倒れふっとび,1283,1283,5000,名詞,サ変接続,スマブラ,ファイター共通,*,倒れふっとび,タオレフットビ,タオレフットビ
最大慣性空N,1283,1283,5000,名詞,サ変接続,スマブラ,ファイター共通,*,最大慣性空N,サイダイカンセイクウエヌ,サイダイカンセイクウエヌ
AC,1283,1283,5000,名詞,サ変接続,スマブラ,ファイター共通,*,AC,オートキャンセル,オートキャンセル
オートキャンセル,1283,1283,5000,名詞,サ変接続,スマブラ,ファイター共通,*,オートキャンセル,オートキャンセル,オートキャンセル
着地キャンセル,1283,1283,5000,名詞,サ変接続,スマブラ,ファイター共通,*,着地キャンセル,チャクチキャンセル,チャクチキャンセル
着キャン,1283,1283,5000,名詞,サ変接続,スマブラ,ファイター共通,*,着キャン,チャクキャン,チャクキャン
発生,1285,1285,5000,名詞,一般,スマブラ,ファイター共通,*,発生,ハッセイ,ハッセイ
持続,1285,1285,5000,名詞,一般,スマブラ,ファイター共通,*,持続,ジゾク,ジゾク
後隙,1285,1285,5000,名詞,一般,スマブラ,ファイター共通,*,後隙,アトスキ,アトスキ
前隙,1285,1285,5000,名詞,一般,スマブラ,ファイター共通,*,前隙,マエスキ,マエスキ
全体フレーム,1285,1285,5000,名詞,一般,スマブラ,ファイター共通,*,全体フレーム,ゼンタイフレーム,ゼンタイフレーム
着地隙,1285,1285,5000,名詞,一般,スマブラ,ファイター共通,*,着地隙,チャクチスキ,チャクチスキ
着地隙発生フレーム,1285,1285,5000,名詞,一般,スマブラ,ファイター共通,*,着地隙発生フレーム,チャクチスキハッセイフレーム,チャクチスキハッセイフレーム
走行移行フレーム,1285,1285,5000,名詞,一般,スマブラ,ファイター共通,*,走行移行フレーム,ソウコウイコウフレーム,ソウコウイコウフレーム
有利フレーム,1285,1285,5000,名詞,一般,スマブラ,ファイター共通,*,有利フレーム,ユウリフレーム,ユウリフレーム
不利フレーム,1285,1285,5000,名詞,一般,スマブラ,ファイター共通,*,不利フレーム,フリフレーム,フリフレーム
LF,1285,1285,5000,名詞,一般,スマブラ,ファイター共通,*,ランディングフォース,ランディングフォース,ランディングフォース
ランディングフォース,1285,1285,5000,名詞,一般,スマブラ,ファイター共通,*,ランディングフォース,ランディングフォース,ランディングフォース
テクい,120,120,6078,形容詞,自立,スマブラ,共通,形容詞・イ段,基本形,テクい,テクイ,テクイ
テク,128,128,6080,形容詞,自立,スマブラ,共通,形容詞・イ段,文語基本形,テクい,テク,テク
テクから,136,136,6079,形容詞,自立,スマブラ,共通,形容詞・イ段,未然ヌ接続,テクい,テクカラ,テクカラ
テクかろ,132,132,6079,形容詞,自立,スマブラ,共通,形容詞・イ段,未然ウ接続,テクい,テクカロ,テクカロ
テクかっ,148,148,6078,形容詞,自立,スマブラ,共通,形容詞・イ段,連用タ接続,テクい,テクカッ,テクカッ
テクく,152,152,6078,形容詞,自立,スマブラ,共通,形容詞・イ段,連用テ接続,テクい,テクク,テクク
テクくっ,152,152,6079,形容詞,自立,スマブラ,共通,形容詞・イ段,連用テ接続,テクい,テククッ,テククッ
テクゅう,144,144,6079,形容詞,自立,スマブラ,共通,形容詞・イ段,連用ゴザイ接続,テクい,テクュウ,テクュウ
テクゅぅ,144,144,6079,形容詞,自立,スマブラ,共通,形容詞・イ段,連用ゴザイ接続,テクい,テクュゥ,テクュゥ
テクき,124,124,6079,形容詞,自立,スマブラ,共通,形容詞・イ段,体言接続,テクい,テクキ,テクキ
テクけれ,108,108,6079,形容詞,自立,スマブラ,共通,形容詞・イ段,仮定形,テクい,テクケレ,テクケレ
テクかれ,140,140,6079,形容詞,自立,スマブラ,共通,形容詞・イ段,命令ｅ,テクい,テクカレ,テクカレ
テクけりゃ,112,112,6079,形容詞,自立,スマブラ,共通,形容詞・イ段,仮定縮約１,テクい,テクケリャ,テクケリャ
テクきゃ,116,116,6079,形容詞,自立,スマブラ,共通,形容詞・イ段,仮定縮約２,テクい,テクキャ,テクキャ
テク,104,104,6080,形容詞,自立,スマブラ,共通,形容詞・イ段,ガル接続,テクい,テク,テク
ラグい,120,120,6078,形容詞,自立,スマブラ,共通,形容詞・イ段,基本形,ラグい,ラグイ,ラグイ
ラグ,128,128,6080,形容詞,自立,スマブラ,共通,形容詞・イ段,文語基本形,ラグい,ラグ,ラグ
ラグから,136,136,6079,形容詞,自立,スマブラ,共通,形容詞・イ段,未然ヌ接続,ラグい,ラグカラ,ラグカラ
ラグかろ,132,132,6079,形容詞,自立,スマブラ,共通,形容詞・イ段,未然ウ接続,ラグい,ラグカロ,ラグカロ
ラグかっ,148,148,6078,形容詞,自立,スマブラ,共通,形容詞・イ段,連用タ接続,ラグい,ラグカッ,ラグカッ
ラグく,152,152,6078,形容詞,自立,スマブラ,共通,形容詞・イ段,連用テ接続,ラグい,ラグク,ラグク
ラグくっ,152,152,6079,形容詞,自立,スマブラ,共通,形容詞・イ段,連用テ接続,ラグい,ラグクッ,ラグクッ
ラグゅう,144,144,6079,形容詞,自立,スマブラ,共通,形容詞・イ段,連用ゴザイ接続,ラグい,ラグュウ,ラグュウ
ラグゅぅ,144,144,6079,形容詞,自立,スマブラ,共通,形容詞・イ段,連用ゴザイ接続,ラグい,ラグュゥ,ラグュゥ
ラグき,124,124,6079,形容詞,自立,スマブラ,共通,形容詞・イ段,体言接続,ラグい,ラグキ,ラグキ
ラグけれ,108,108,6079,形容詞,自立,スマブラ,共通,形容詞・イ段,仮定形,ラグい,ラグケレ,ラグケレ
ラグかれ,140,140,6079,形容詞,自立,スマブラ,共通,形容詞・イ段,命令ｅ,ラグい,ラグカレ,ラグカレ
ラグけりゃ,112,112,6079,形容詞,自立,スマブラ,共通,形容詞・イ段,仮定縮約１,ラグい,ラグケリャ,ラグケリャ
ラグきゃ,116,116,6079,形容詞,自立,スマブラ,共通,形容詞・イ段,仮定縮約２,ラグい,ラグキャ,ラグキャ
ラグ,104,104,6080,形容詞,自立,スマブラ,共通,形容詞・イ段,ガル接続,ラグい,ラグ,ラグ
